1 1 1
1 2 2
1 3 8
1 4 8
1 5 8
1 6 9
1 7 17
1 8 17
1 9 20
1 10 20
2 2 2
2 3 8
5 5 6
3 3 8
10 10 7
15 15 18
16 16 5
17 17 13
18 18 21
19 19 21
20 20 8
25 25 24
30 30 19
33 33 27
40 40 9
50 50 25
55 55 113
60 60 20
70 70 15
75 75 15
80 80 10
85 85 10
90 90 18
95 95 106
99 99 26
1 50 112
1 100 119
10 20 21
30 40 107
20 30 112
35 50 110
1500 2000 180
1800 2500 209
1000 1500 182
5000 10000 262
8000 12000 268
10000 15000 276
2000 3000 217
3500 4000 238
4500 5000 210
8 10 20
5 15 20
1 100 119
1 330 144
1000 2000 182
2500 2600 178
3000 3500 199
4000 4500 215
1 70 113
1 75 116
1 80 116
1 90 116
1 950 179
500 1000 179
1000 1100 169
1111 1211 182
1222 1322 177
1333 1433 172
1444 1544 172
1555 1655 167
1666 1766 180
1777 1877 175
1888 1988 175
1999 2099 157
2100 2200 170
2211 2311 183
2322 2422 183
2433 2533 209
2544 2644 191
2655 2755 173
2766 2866 173
2877 2977 217
2988 3088 155
3099 3199 199
3200 3300 168
3311 3411 181
3422 3522 181
3533 3633 194
3644 3744 238
3755 3855 176
3866 3966 189
3977 4077 189
4088 4188 189
4199 4299 202
4300 4400 215
4411 4511 184
4522 4622 184
4633 4733 184
4744 4844 197
4855 4955 210
4966 5066 179
5077 5177 179
5188 5288 192
5299 5399 192
5400 5500 192
5511 5611 236
5622 5722 205
5733 5833 205
5844 5944 187
5955 6055 187
6066 6166 187
6177 6277 187
6288 6388 200
6399 6499 169
1 999999 525
10000 20000 279
20000 30000 308
30000 40000 324
40000 50000 314
50000 60000 340
60000 70000 335
70000 80000 351
80000 90000 333
90000 100000 333
