..............
----------------------------------------------------------------------
Ran 14 tests in 0.021s

OK
Name             Stmts   Miss Branch BrPart  Cover   Missing
------------------------------------------------------------
Collatz.py          39      0     12      0   100%
TestCollatz.py      65      0      0      0   100%
------------------------------------------------------------
TOTAL              104      0     12      0   100%
