1 10 20
100 200 125
201 210 89
900 1000 174
10 1 20
1 1 1
999999 999999 259
1 999999 525
2 10 20
1 9 20
5 6 9
27 27 112
999990 999999 259
330000 390000 441
540000 670000 509
121728 179406 383
401115 985021 525
829163 917776 525
760638 377624 509
174119 744775 509
378145 42992 443
83771 390361 443
123469 847686 525
562255 357830 470
967522 874759 507
999174 657157 525
516919 420275 470
886331 983603 507
166378 980441 525
732258 518356 509
279469 300045 389
745704 611956 509
594554 209244 470
122037 429608 449
574609 449648 470
330045 688650 509
290995 78116 443
21201 305754 443
49172 363937 443
463837 855797 525
229859 307192 443
214618 855634 525
313095 619595 470
696748 83153 509
83620 52460 351
201749 590413 470
720871 670014 504
118154 190155 383
126986 721353 509
77136 426668 449
943992 837041 525
207211 274149 443
986820 276546 525
648011 175293 509
957372 341563 525
161326 319844 443
953380 272727 525
515114 76337 470
421116 42723 449
288168 936027 525
635294 276029 509
920439 24146 525
923643 839047 476
757750 339564 509
183749 704164 509
179210 856725 525
225743 257824 443
784445 357781 509
45840 126658 354
63243 823402 509
720735 593319 509
943740 644365 525
409241 775556 509
226417 968002 525
43082 319090 443
345356 470788 449
258768 126510 443
367130 337529 441
272382 573524 470
254465 23202 443
628740 607822 509
162343 712403 509
726009 302485 509
935667 678030 525
134358 102443 354
953948 388110 525
177196 981978 525
122552 154785 375
215684 366492 443
353006 194787 443
675406 184331 509
931458 789749 525
973797 791330 525
204365 701388 509
679065 132616 509
896693 304944 525
448241 167093 449
316270 62358 443
598588 12868 470
594472 789130 509
188989 838241 525
183358 271098 443
683211 964120 525
253840 279300 407
405883 573777 470
704982 230653 509
818771 379707 509
872063 472630 525
40540 59133 340
162504 914516 525
149054 292362 443
724564 396695 509
235725 344676 407
958040 567786 525
877185 11654 525
705616 543214 509
