............
----------------------------------------------------------------------
Ran 12 tests in 0.009s

OK
Name             Stmts   Miss Branch BrPart  Cover   Missing
------------------------------------------------------------
Collatz.py          34      0     12      0   100%
TestCollatz.py      55      0      0      0   100%
------------------------------------------------------------
TOTAL               89      0     12      0   100%
