223628 230507 368
708770 700732 504
137355 142076 344
88056 89190 333
462251 460551 444
759807 756011 362
614085 623749 447
157974 166873 370
759287 768445 468
43819 53279 340
576232 577537 390
257892 251221 363
511781 513320 470
563730 564060 284
542635 537718 408
262832 262238 301
88563 96847 333
356242 365547 410
406516 416417 449
369423 379190 423
738921 735703 424
622047 624534 354
608549 605837 403
896375 904125 401
473931 465186 413
649207 642965 385
433608 427431 387
64373 66818 268
196841 196048 298
198768 203407 342
4556 3650 238
478183 468689 382
777042 772429 437
396235 397115 330
862356 857913 370
697806 692897 367
448493 449721 369
790056 785071 406
763254 764242 375
93918 96557 328
332561 323467 384
516655 512245 395
123495 125725 318
734692 737923 424
472832 469183 338
913647 904761 476
421674 417406 343
478789 481927 413
764917 758038 380
651003 660354 429
744455 748769 362
84435 87196 333
812428 806277 406
875076 874260 388
526149 529350 408
347617 354247 379
880277 870564 432
349375 354222 379
251926 246400 350
164859 169704 352
796771 792729 468
357228 362989 410
197340 193384 360
690751 684971 398
374283 374479 255
387420 390127 436
490882 488353 351
244925 247958 350
897072 892209 370
215196 211817 373
888246 885299 445
436112 429510 387
416415 422047 387
560395 568378 421
219880 221618 355
904258 902732 370
824088 830034 419
133024 130801 331
371486 375974 361
122271 115052 349
176030 172918 347
784447 782094 331
884854 881692 370
698642 706712 504
914278 912339 401
431495 439847 400
560980 556381 359
980720 978556 383
934156 926607 476
878624 879828 357
52201 49298 309
96750 93824 328
44528 50722 314
755853 753655 362
920764 928994 476
308207 304765 371
42950 45248 314
689089 682383 398
486801 486352 320
241566 250877 350
801595 801595 75
664585 664585 230
477167 477167 170
890359 890359 119
235295 235295 107
35280 35280 50
763486 763486 225
717522 717522 75
90266 90266 46
241200 241200 138
427450 427450 126
374964 374964 255
56246 56246 84
285453 285453 58
224581 224581 94
571921 571921 147
881948 881948 127
717501 717501 305
502618 502618 183
11465 11465 69
196740 196740 99
331420 331420 154
861060 861060 176
176775 176775 109
40373 40373 138
705895 705895 106
296364 296364 146
199069 199069 130
792308 792308 75
966629 966629 122
888003 888003 158
576532 576532 46
356846 356846 167
113211 113211 111
274113 274113 146
778713 778713 163
968727 968727 140
55213 55213 154
165125 165125 153
290619 290619 45
84068 84068 152
596247 596247 98
242139 242139 169
454254 454254 201
567111 567111 178
908543 908543 171
429056 429056 51
562167 562167 85
93806 93806 134
227274 227274 94
