164058 308601 443
47932 277237 443
682004 354255 509
863302 745296 525
937452 937133 277
159817 361186 443
850706 297271 525
376413 24783 443
985315 40654 525
296439 858504 525
745226 217959 509
618887 661674 509
41552 364161 443
109619 696670 509
871834 581027 525
826058 850229 525
550344 908310 525
782763 868234 525
692121 278126 509
120802 859306 525
898739 227440 525
421958 873482 525
183928 669439 509
14195 472283 449
328165 493644 449
744588 705036 424
614510 712634 509
946352 321918 525
580362 513584 452
376089 205674 443
740083 442706 509
236414 728101 509
271023 611439 470
524425 24411 470
667546 636581 442
847197 363230 525
49332 213156 383
235029 808798 509
266391 493249 449
709254 27317 509
139723 194799 383
987070 27698 525
27835 207459 383
423484 632132 509
517031 609732 452
37132 721996 509
392076 952395 525
182396 462129 449
71328 536287 470
374899 862370 525
685613 161991 509
83718 596389 470
144479 468968 449
810221 67218 509
497517 536499 470
617156 792838 509
208417 606529 470
985244 255239 525
280309 387234 441
112569 726723 509
754891 720158 424
965473 53119 525
46182 506187 449
793705 849758 525
433664 938039 525
692187 275397 509
465292 672829 509
282013 580991 470
661960 218548 509
177265 606966 470
198250 668146 509
574060 487777 470
294750 460247 449
335863 536392 470
246552 418215 449
795445 867953 525
65564 790301 509
97608 838453 525
466537 504287 426
595222 702004 509
611135 542255 452
870644 140478 525
373850 150671 443
1089 38047 324
487327 651727 509
935394 65902 525
328450 952013 525
910857 389692 525
426735 542369 470
366110 635689 509
205442 694067 509
72537 504297 449
640785 75243 509
152003 412926 449
772932 843389 525
134967 115859 344
830979 743491 468
163853 688846 509
855495 66198 525
170764 796900 509
188068 113909 383
25551 779322 509
882194 125680 525
192151 948533 525
104528 512978 470
400333 557055 470
374467 958437 525
445089 961751 525
881558 303484 525
848310 780609 525
814778 783164 468
298350 877987 525
545641 425709 470
901658 869089 445
78776 15105 351
789188 291135 509
741783 259712 509
722866 586467 509
513771 668955 509
865252 572462 525
418091 112280 449
602244 690091 509
76287 685078 509
704727 182721 509
376588 640458 509
427151 116307 449
42508 517300 470
274965 805484 509
83493 127883 354
515238 74928 470
815725 981907 525
163850 958718 525
816711 98676 509
252849 954312 525
124021 190120 383
204101 988412 525
736271 408796 509
649010 451439 509
160475 773064 509
640585 180618 509
416502 411039 387
763187 791509 468
29138 13554 308
632618 529204 509
149310 168051 383
820223 462523 509
621456 801322 509
994832 727308 525
70706 199898 383
794612 694038 504
514939 602314 452
75431 431904 449
164561 256911 443
924655 372022 525
599394 958916 525
657537 242392 509
265200 127099 443
269776 800165 509
766064 100237 509
971876 365329 525
254945 765351 509
164790 344714 443
548156 228442 470
844068 613595 525
580870 462390 470
741468 517705 509
352663 971447 525
684 283057 443
802902 654769 504
131478 774465 509
320657 795771 509
518820 74791 470
632275 983060 525
565412 966952 525
661849 301991 509
777812 910187 525
473207 302849 449
897634 16876 525
131393 971061 525
974767 352106 525
332886 178362 443
475208 435540 444
355918 563474 470
702537 909021 525
779072 560093 509
328141 308628 384
567101 692472 509
239544 173312 443
890453 698761 525
73832 611208 470
853850 562958 525
52596 790163 509
159152 264745 443
219030 354876 443
369993 295546 441
738847 283061 509
828238 105632 509
465823 174388 449
164345 612603 470
334694 374828 441
