...................
----------------------------------------------------------------------
Ran 19 tests in 0.015s

OK
Name             Stmts   Miss Branch BrPart  Cover   Missing
------------------------------------------------------------
Collatz.py          43      0     20      0   100%
TestCollatz.py      83      0      0      0   100%
------------------------------------------------------------
TOTAL              126      0     20      0   100%
