1 10 20
100 200 125
201 210 89
900 1000 174
1 1 1
1 7 17
1 8 17
1 9 20
10 10 7
107788 872342 525
10858 14582 276
12339 65252 340
13 62 113
13 73 116
138 524 144
138909 186360 383
143595 782892 509
145 437 144
15 71 113
157844 245984 443
163796 384319 443
1708 4283 238
175204 976979 525
18054 56545 340
19730 51598 324
208 844 171
209000 749119 509
23 28 112
24 55 113
246 638 144
25 81 116
2660 4264 238
28238 52432 324
2828 2846 173
29 59 113
290 550 144
999999 999999 259
999980 999999 259
999999 999970 259
999920 999950 259
999940 999910 259
1 999999 525
30 63 113
3376 8293 262
3413 5290 238
344265 466795 449
35 70 113
353 929 179
354 810 171
3544 9111 262
3588 4170 238
37 71 113
379851 622155 470
389222 881002 525
399 637 142
4 9 20
402 997 179
404325 651820 509
420 674 145
4206 5499 215
4249 8634 262
4287 8041 262
4454 8299 262
45 95 116
464 795 171
47144 90281 351
47511 68041 340
47917 49727 296
49 85 116
4910 6211 262
499 830 171
5 10 20
5 7 17
50 82 116
50099 90805 351
5271 7129 262
53765 97272 351
54129 72382 335
56 56 20
562311 992831 525
5658 6755 262
5666 9577 262
56757 74442 335
57330 75846 335
5761 5893 218
5771 6673 262
58 93 116
58146 74019 335
58508 85457 351
59 92 116
590 869 171
6 10 20
6 7 17
6 9 20
610355 886029 525
62 86 116
645 744 171
65 70 28
655 990 179
655560 896640 525
66 100 119
66178 90259 351
66413 85671 351
69 76 116
697 722 171
699032 953019 525
7 10 20
7 8 17
705756 832120 468
7197 8559 252
725 785 153
73 81 116
75 89 111
7523 9890 260
77250 87535 338
78204 84217 338
789114 886580 525
7972 8961 247
810867 971274 525
8288 9447 260
83 85 111
833 941 179
85 89 31
850 864 148
855063 859129 388
875 977 174
8751 9855 260
88065 90552 315
884623 942410 507
888 989 174
9 10 20
90347 98766 333
905646 919485 476
91048 96366 333
91639 94308 315
92344 92603 284
9318 9575 198
949 972 143
95 97 119
951 979 143
956878 991780 458
95709 98642 297
963220 972305 458
9643 9662 167
972 972 99
9812 9986 242
991161 996888 365
992926 997799 365
995 1000 112
1 2 2
6 8 17
8 10 20
3 10 20
8 8 4
5 9 20
43 81 116
58 88 116
76 76 23
35 38 22
37 88 116
75 76 23
88 89 31
45 81 116
80 94 111
372 685 145
784 803 122
296 537 144
113 950 179
784 895 179
685 706 171
214 607 144
290 468 144
505 592 137
2673 4448 238
3721 6553 262
7148 9378 260
7256 8333 252
4250 4257 202
9669 9689 167
5755 7989 262
7759 7803 221
3196 7854 262
71577 77530 351
92079 96176 328
98679 99262 328
76227 82952 351
82600 97664 333
89128 94122 333
56493 79803 351
86069 90286 333
83881 93307 333
499955 671351 509
285033 921669 525
440299 487857 444
371186 956066 525
515901 852246 525
279695 417881 449
622771 748683 509
707078 736304 424
705914 803981 468
