1 10 20
100 200 125
201 210 89
900 1000 174
200 2000 182
89 132 122
15 107 119
24 194 125
81 127 119
60 193 125
57 70 108
71 109 119
3 111 119
73 98 119
70 103 119
67 182 125
47 131 122
61 103 119
33 63 113
22 51 112
33 178 125
60 95 116
43 97 119
2 145 122
86 161 122
49 177 125
32 144 122
44 187 125
27 176 125
19 130 122
51 57 113
78 161 122
65 158 122
77 195 125
36 99 119
10 147 122
82 85 111
93 197 125
69 122 119
65 168 122
69 73 116
86 106 119
95 197 125
47 199 125
38 112 119
17 159 122
92 141 122
87 114 119
55 103 119
83 187 125
33 187 125
1 20 21
54 133 122
4 163 122
4 198 125
27 114 119
88 112 119
89 171 125
48 175 125
59 138 122
68 185 125
77 159 122
44 140 122
42 171 125
47 72 113
27 89 116
72 89 116
58 117 119
23 169 122
4 128 119
81 106 119
94 122 119
19 100 119
21 97 119
42 124 119
14 36 112
89 95 106
4 150 122
43 144 122
35 74 116
93 196 125
4 108 119
13 35 112
71 187 125
7 84 116
63 177 125
18 188 125
80 110 119
71 158 122
11 67 113
80 193 125
49 179 125
40 199 125
53 99 119
77 116 119
64 200 125
9 47 112
77 135 122
34 156 122
88 104 119
45 56 113
9 158 122
90 174 125
90 109 119
29 163 122
61 183 125
91 147 122
32 69 113
15 99 119
84 102 119
48 90 116
83 98 119
92 125 119
93 93 18
76 156 122
34 176 125
14 129 122
63 86 116
35 171 125
79 161 122
4 95 116
6 105 119
92 112 119
8 75 116
63 189 125
31 169 122
68 175 125
88 124 119
99 118 114
74 128 119
55 162 122
91 184 125
12 182 125
21 89 116
35 197 125
70 94 116
94 117 119
60 181 125
50 145 122
74 184 125
86 159 122
3 162 122
59 89 116
30 77 116
73 109 119
91 122 119
75 153 122
81 122 119
13 48 112
9 104 119
8 77 116
95 155 122
48 140 122
14 175 125
85 122 119
