1 10 20
100 200 125
201 210 89
900 1000 174
1 1 1
1000000 1000000 153
1 1000000 525
999999 1000000 259
2 3 8
1 2 2
999999 999998 259
500000 500001 152
1 999999 525
100 200 125
900000 1000000 507
100000 500000 449
123456 789012 509
1 999 179
1000 1001 143
2 4 8
500000 999999 525
400000 400001 193
100000 999999 525
1000000 999 525
123 987 179
654 321 145
999 1000 112
987654 123456 525
100 1000000 525
999999 888888 507
500001 500002 113
9999 1000000 525
1000 2000 182
10000 10001 180
1234 4321 238
56789 98765 351
333333 666666 509
1000000 500000 525
450 900 179
777777 999999 525
1 500000 449
500001 1000000 525
10000 999999 525
12345 67890 340
654321 999999 525
999998 999999 259
1 888888 525
987654 999999 440
777777 888888 525
3000 6000 238
800000 1000000 525
100000 100001 129
2 999999 525
987654 987653 184
100000 500001 449
999 888 174
123 124 109
234 235 128
111111 222222 386
99998 99999 227
800000 800001 132
900000 900001 189
900 901 55
1234 1235 133
999999 500000 525
666 667 145
777 778 122
500000 1 449
250000 500000 449
100000 200000 383
900000 1 525
250000 750000 509
99999 1000000 525
123456 654321 509
9876 54321 340
1000000 10 525
888888 999999 507
1000 10000 262
500 501 111
12345 67890 340
222222 333333 443
1000000 500001 525
34567 76543 340
987654 999999 440
4321 8765 262
200000 300000 443
444444 888888 525
1 100 119
2 200 125
55555 77777 351
567 890 179
100 150 122
900000 900100 370
500000 1000000 525
2222 999999 525
9999 1000000 525
987 654 179
123 456 144
1000000 999999 259
50000 50001 128
800000 900000 525
150000 300000 443
90000 100000 333
700000 800000 504
100000 200000 383
600000 700000 509
1 3 8
999997 999998 259
555 666 145
11111 22222 279
7777 8888 252
44444 55555 340
66666 77777 351
33333 44444 324
1 9999 262
1000 500000 449
500000 500000 152
250000 999999 525
9999 9999 92
10 20 21
8765 1234 262
54321 98765 351
33333 66666 340
12345 98765 351
54321 123456 354
888 999 174
1 1234 182
567 1234 182
1000000 999 525
99999 99999 227
222 333 144
444 555 142
333 444 134
1000000 100000 525
98765 123456 354
123456 54321 354
9876 54321 340
111111 999999 525
777777 654321 504
666666 500000 509
