1 10 20
100 200 125
201 210 89
900 1000 174
1 1 1
1 1000 179
100001 101000 341
987888 999999 440
497632 843344 525
332532 720139 509
541571 951680 525
447285 594391 470
632453 826955 504
512967 538223 439
589915 720225 509
625327 779093 509
708581 880104 525
982365 986526 427
412177 516859 470
719926 998780 525
177351 9064 383
582568 536163 452
671024 196411 509
551941 448187 470
906224 497823 525
501109 634914 509
855804 907328 445
96046 165412 383
429967 658378 509
590421 871285 525
449693 808821 509
560408 931661 525
266504 691716 509
107930 497655 449
48642 770157 509
949420 996395 458
612976 732428 509
121821 650996 509
623589 623789 354
12806 164903 383
321204 891218 525
882664 962063 507
418629 790730 509
116608 806439 509
173507 208429 373
546704 779573 509
109503 441010 449
494716 870140 525
372548 827777 509
546089 983660 525
854129 900119 445
549358 833205 509
335482 416584 449
942156 962285 414
681162 713631 504
200342 583517 470
293806 433782 449
863559 942780 507
247390 375236 441
82341 537622 470
129825 986337 525
456463 602765 470
504328 993926 525
12900 485990 449
879181 955501 507
307840 321693 384
455284 736455 509
394392 415667 449
272568 848735 525
607508 981449 525
709369 742640 424
123016 282537 443
376569 808273 509
226109 362337 443
998 210368 383
463164 573227 470
720616 817475 468
798762 809205 406
238959 378666 441
910469 942554 507
492736 777454 509
892098 927118 476
434079 517712 470
725939 843642 525
949061 968150 414
110497 179797 383
758291 958163 525
906840 940655 507
448447 829453 509
636967 740836 504
283070 953927 525
835776 967312 525
633914 874201 525
179669 939264 525
393528 408275 405
920623 988722 507
160393 721855 509
379873 976461 525
436596 926395 525
215864 921688 525
238627 718437 509
453986 518967 470
174378 788633 509
714206 804830 468
935610 967203 507
163188 267070 443
520058 601811 452
179546 603129 470
98887 348450 443
868214 913821 476
20103 446887 449
237729 625286 470
998800 998842 228
856440 915887 476
669355 793706 504
268427 318432 407
203457 203697 267
251314 403935 441
964391 973902 458
894053 985523 507
363395 584179 470
103911 430126 449
568890 596223 434
970903 993500 427
179114 341291 443
939706 941046 383
840499 924394 476
910515 997872 507
169589 532371 470
752292 957925 525
76515 561981 470
870815 971410 507
724588 837844 525
300464 838715 525
641283 666360 442
389913 437550 449
554522 929292 525
81692 763541 509
734446 893706 525
735356 877954 525
315004 794253 509
894034 935087 476
121158 712273 509
538139 698590 509
359361 837486 509
956250 984617 458
621087 829436 509
206377 598623 470
93969 752827 509
36025 695327 509
221681 305111 443
784895 890487 525
951287 969181 414
629199 684046 442
301084 468856 449
802006 868195 525
585652 866949 525
35812 648786 509
