...............
----------------------------------------------------------------------
Ran 15 tests in 0.018s

OK
Name             Stmts   Miss Branch BrPart  Cover   Missing
------------------------------------------------------------
Collatz.py          52      0     24      0   100%
TestCollatz.py      66      0      0      0   100%
------------------------------------------------------------
TOTAL              118      0     24      0   100%
