1 10 20
100 200 125
201 210 89
900 1000 174
1 1 1
999999 999999 259
10 1 20
50 60 113
1000 2000 182
3000 4000 238
5000 6000 236
7000 8000 252
9000 10000 260
11000 12000 250
13000 14000 276
15000 16000 271
17000 18000 279
19000 20000 274
21000 22000 269
23000 24000 282
25000 26000 264
27000 28000 259
29000 30000 272
31000 32000 285
33000 34000 267
35000 36000 324
37000 38000 306
39000 40000 306
41000 42000 257
43000 44000 270
45000 46000 314
47000 48000 314
49000 50000 296
51000 52000 309
53000 54000 322
55000 56000 260
57000 58000 304
59000 60000 304
61000 62000 317
63000 64000 330
65000 66000 268
67000 68000 312
69000 70000 299
71000 72000 325
73000 74000 294
75000 76000 307
77000 78000 351
79000 80000 307
81000 82000 320
83000 84000 289
85000 86000 302
87000 88000 333
89000 90000 315
91000 92000 333
93000 94000 284
95000 96000 328
97000 98000 297
99000 100000 328
101000 102000 310
103000 104000 248
105000 106000 341
107000 108000 292
109000 110000 310
111000 112000 323
115000 116000 349
117000 118000 305
119000 120000 305
121000 122000 336
123000 124000 331
125000 126000 318
127000 128000 287
129000 130000 344
131000 132000 300
133000 134000 313
135000 136000 344
137000 138000 331
139000 140000 313
141000 142000 326
143000 144000 282
145000 146000 295
147000 148000 295
149000 150000 326
153000 154000 308
155000 156000 308
157000 158000 339
163000 164000 321
165000 166000 321
167000 168000 321
169000 170000 334
171000 172000 334
173000 174000 347
175000 176000 272
177000 178000 334
179000 180000 303
181000 182000 316
183000 184000 254
185000 186000 329
187000 188000 329
189000 190000 360
193000 194000 329
195000 196000 360
197000 198000 285
199000 200000 329
