1 10 20
100 200 125
201 210 89
900 1000 174
1000 2000 182
2000 3000 217
3000 4000 238
4000 5000 215
5000 6000 236
6000 7000 262
7000 8000 252
8000 9000 247
9000 10000 260
10000 20000 279
20000 30000 308
30000 40000 324
40000 50000 314
50000 60000 340
60000 70000 335
70000 80000 351
80000 90000 333
90000 100000 333
100000 110000 354
120000 130000 344
130000 132400 331
140000 150000 375
151350 151900 295
168932 170000 334
170300 170459 228
180142 181200 365
198914 200000 329
200000 200500 342
210227 211000 324
220000 220099 218
230000 230750 443
249500 250000 332
250000 250777 332
260000 260420 301
281090 282000 358
285321 286212 296
290000 290233 221
300000 300500 371
203419 203930 267
9234 9532 260
72314 72943 263
83293 84000 289
9213 9800 260
1392 1400 128
9534 9700 198
2934 3242 199
52355 53552 340
8623 9000 247
2369 2500 209
6328 6400 200
4932 5000 197
2639 3000 217
99999 100300 341
51912 52131 278
52140 53012 340
21355 21643 238
10 123 119
3421 3500 181
323 421 144
342 532 142
626 690 145
91 200 125
3129 3400 199
1299 1500 177
789 987 179
456 654 145
555 666 145
444 777 171
3642 3700 207
132 221 125
890 1000 174
481 600 142
124 566 144
6432 6500 169
593 700 145
1000 1500 182
412 500 142
5319 5500 192
17 71 113
89987 90000 196
210 512 144
999 1111 169
543 634 137
3642 3800 238
543 634 137
7000 7342 195
9342 9643 198
10453 10502 180
92133 92494 284
10101 10200 180
45555 45900 239
6231 6280 187
6799 6890 182
564546 564665 222
643436 644000 279
999900 999999 259
1 1 1
10 10 7
100 100 26
1000 1000 112
10000 10000 30
999999 999999 259
1 1 1
10 10 7
100 100 26
1000 1000 112
10000 10000 30
999999 999999 259
349 4924 238
4359 5489 215
140938 150000 375
325435 336089 353
39045 49308 314
989 1293 182
12383 14031 276
678123 679131 380
918230 919321 339
48913 53890 340
23489 94213 351
6783 10314 260
47921 50191 296
32189 39084 324
12395 14859 276
49012 50981 296
810910 813218 362
999410 999999 290
21983 22810 269
-10 -1 0
-10000 0 0
0 0 0
