1 10 20
100 200 125
201 210 89
900 1000 174
1 1 1
999999 999999 259
1 2 2
100 100 26
1000 1000 112
10 20 21
100 200 125
500000 500001 152
1 10 20
101 101 26
555 555 31
1234 4321 238
1 1000 179
1234 1234 133
4321 4321 171
1000 2000 182
20 30 112
2 3 8
500 501 111
400 500 142
25 50 112
75 150 122
123 456 144
33 33 27
1 100 119
999 1001 143
9998 10002 180
500 505 111
1 2 2
2 1000 179
789 1001 179
10 20 21
20 1000 179
15 150 122
100 100 26
100 200 125
5 10 20
300 1000 179
2500 3000 217
999 1005 143
1001 2000 182
1500 1505 141
2500 3000 217
4000 5000 215
600 700 145
90 200 125
3 5 8
5000 10000 262
13 20 21
400 450 134
780 800 122
150 160 86
2 5 8
300 400 144
650 700 145
250 500 144
30 100 119
125 175 125
4500 4600 184
8000 8100 190
25 30 112
75 80 36
11 15 18
222 230 71
1 2 2
990 1000 112
3000 4000 238
5000 5100 179
120 150 122
2 10 20
5 7 17
40 60 113
1111 1115 138
2222 2230 183
10000 20000 279
333 400 126
678 700 127
890 900 117
100 110 114
10 20 21
101 110 114
1500 1550 154
25 50 112
85 100 119
22 28 112
130 140 91
2 5 8
300 320 131
450 500 142
650 700 145
800 900 179
999 1000 112
201 220 115
3333 3350 181
5000 6000 236
333 444 134
2222 2225 183
300 400 144
10 40 112
50 100 119
2 5 8
300 400 144
150 250 128
250 300 123
5000 6000 236
10000 10001 180
1000 5000 238
2000 3000 217
3 8 17
12 15 18
1000 2000 182
200 300 128
50 150 122
400 500 142
20 30 112
60 70 108
800 900 179
1 3 8
7 20 21
14 22 21
23 30 112
10000 20000 279
9999 10000 92
3000 4000 238
500 1000 179
8 12 20
250 600 144
1500 1600 167
