...................
----------------------------------------------------------------------
Ran 19 tests in 0.389s

OK
Name             Stmts   Miss Branch BrPart  Cover   Missing
------------------------------------------------------------
Collatz.py          29      0     12      0   100%
TestCollatz.py      83      0      0      0   100%
------------------------------------------------------------
TOTAL              112      0     12      0   100%
