1 10 20
100 200 125
201 210 89
900 1000 174
1 1 1
1 2 2
1 3 8
1 4 8
1 5 8
1 6 9
1 7 17
1 8 17
1 9 20
1 10 20
1 1000 179
1 2000 182
1000 2000 182
20 20 8
29 300 128
3 4 8
122 125 109
129 140 122
100 100 26
240 256 110
233 500 144
500 623 137
917 1765 182
1949 1954 175
788 1836 182
246 928 179
1405 1650 172
1217 1317 177
1074 1884 182
1335 1556 172
89 504 144
1663 1835 180
166 1001 179
1926 1987 175
216 1730 182
590 1675 182
871 1041 179
627 770 171
595 1945 182
397 1603 182
1137 1707 182
1150 1490 182
720 1975 182
539 906 179
1682 1917 180
969 1903 182
768 1546 182
88 822 171
1878 1971 175
1113 1999 182
1318 1951 180
797 1459 182
1129 1310 182
1244 1278 177
215 1136 179
286 872 179
953 1387 182
728 767 153
1539 1772 180
81 1041 179
1568 1632 167
989 1523 182
1548 1755 180
1605 1914 180
81 1393 182
1731 1893 180
1913 1953 175
1091 1651 182
1632 1648 136
1995 1996 51
1224 1959 180
1252 1377 177
414 1105 179
742 941 179
203 1402 182
1501 1644 167
569 762 171
1077 1475 182
160 1142 179
919 1301 182
259 1260 182
978 1777 182
798 1535 182
1318 1606 172
983 1350 182
393 565 142
252 831 171
1720 1746 180
1936 1947 100
212 1985 182
587 1762 182
50 1242 182
515 1286 182
848 912 179
1396 1897 180
463 1820 182
1314 1630 172
1721 1824 180
156 1514 182
1191 1548 177
1391 1581 172
814 1399 182
662 791 171
362 1589 182
762 1222 182
1908 1916 175
1547 1956 180
907 1732 182
1647 1913 180
1574 1915 180
1284 1751 180
775 1965 182
1528 1726 180
1506 1895 180
469 688 145
1375 1770 180
188 1311 182
286 485 144
775 1228 182
1708 1740 149
1143 1596 182
1435 1771 180
1 999999 525
10 1 20
999999 1 525
