...................
----------------------------------------------------------------------
Ran 19 tests in 0.252s

OK
Name             Stmts   Miss Branch BrPart  Cover   Missing
------------------------------------------------------------
Collatz.py          32      0     14      0   100%
TestCollatz.py      83      0      0      0   100%
------------------------------------------------------------
TOTAL              115      0     14      0   100%
