........................
----------------------------------------------------------------------
Ran 24 tests in 0.232s

OK
Name             Stmts   Miss Branch BrPart  Cover   Missing
------------------------------------------------------------
Collatz.py          28      0     14      0   100%
TestCollatz.py     106      0      0      0   100%
------------------------------------------------------------
TOTAL              134      0     14      0   100%
