1 10 20
100 200 125
201 210 89
900 1000 174
103 202 125
2546 8457 262
1745 9473 262
530 9802 262
2900 7459 262
3894 5821 236
327 9234 262
4821 9345 262
4356 9821 262
382 9732 262
102 9945 262
2746 2890 173
3946 8576 262
873 2657 209
399 8472 262
839 6321 262
9827 4387 262
921 4905 238
1746 1823 162
2645 2967 217
2387 7392 262
1302 4209 238
724 8393 262
9073 2938 262
935 4378 238
9274 1245 262
873 7843 262
1932 3921 238
4721 9834 262
1289 9124 262
3821 2945 238
3956 7865 262
721 9648 262
7458 9839 260
621 8329 262
873 2367 183
4372 8745 262
2910 4632 238
1954 7864 262
902 8634 262
1732 1946 180
1235 6574 262
7934 8742 252
329 7364 262
721 9832 262
6212 9345 260
157 8972 262
3476 9843 262
2675 9873 262
4756 8731 262
3289 5921 238
1547 7689 262
9872 2376 262
634 9827 262
4938 6342 262
821 7634 262
674 9821 262
2958 5376 238
193 6723 262
3856 4398 215
1956 7258 262
3928 9273 262
283 5236 238
7281 9823 260
3748 9547 262
534 3984 238
1534 7864 262
9476 1746 262
1895 2345 183
746 9283 262
1278 9245 262
1763 6374 262
9283 1394 262
2346 9832 262
987 8731 262
9281 2346 262
1543 6347 262
436 5678 238
8762 2975 262
1394 5643 238
2934 9537 262
1763 9243 262
7634 8764 252
5463 9287 262
934 3984 238
1963 5637 238
738 8372 262
2387 9736 262
6281 8765 257
583 9273 262
4738 9583 262
3248 7823 262
9543 2834 262
758 9385 262
2643 9768 262
1932 4763 238
1934 9276 262
3874 9854 262
2935 9736 262
7482 2984 262
1283 9763 262
587 9834 262
9435 6271 260
872 4375 238
7384 2947 262
2847 3749 238
5276 8923 262
2391 9865 262
193 6281 262
7283 9872 260
9385 2846 262
3872 7283 262
398 8765 262
5823 9832 262
1295 3749 238
9276 1298 262
1765 9274 262
873 5632 238
236 9645 262
749 8634 262
364 2975 217
1934 4756 238
2876 9472 262
2837 9587 262
7285 9281 260
8374 3984 262
1295 2873 209
987 6347 262
1762 8374 262
139 3984 238
4358 9374 262
3768 9857 262
234 9682 262
738 9247 262
4892 9876 262
7231 9863 260
934 2934 217
238 2873 209
296 3984 238
349 9736 262
9281 1847 262
294 7482 262
473 7629 262
1923 8274 262
1932 9473 262
483 9234 262
8742 3294 262
973 8753 262
3846 2847 238
926 5648 238
1923 2347 183
5746 8923 262
2834 7639 262
735 8573 262
1783 2974 217
148 7468 262
7538 9837 260
3859 8635 262
2745 9476 262
937 9275 262
3748 8731 262
2834 9817 262
2891 9234 262
9287 2943 262
3765 8762 262
1325 9735 262
8743 9436 260
9374 2873 262
2847 5948 238
1924 9284 262
2938 8276 262
1758 9372 262
463 8276 262
2648 3928 238
5238 9467 262
3891 8732 262
1294 8235 262
8472 2739 262
3294 5921 238
8742 9356 260
9382 2847 262
1928 3748 238
8299 46299 324
27622 51932 324
16607 45956 324
75583 67109 325
64977 47043 340
12501 19567 279
21891 91935 351
49631 30672 324
88856 52089 351
29302 19209 308
58483 45844 340
90285 73061 351
17631 65235 340
8628 93215 351
99273 85965 333
81507 75838 351
32467 40536 324
25868 53261 340
