1 10 20
100 200 125
201 210 89
900 1000 174
1 1 1
2 2 2
89 643 144
122 343 144
642 533 137
4 92 116
251 59 128
651 468 145
652 270 145
151 526 144
5 278 128
639 274 144
62 673 145
449 312 144
103 641 144
358 504 142
637 273 144
349 231 144
704 673 171
795 484 171
246 353 144
625 766 171
47 158 122
606 448 142
578 745 171
530 579 137
672 648 145
782 358 171
98 458 144
444 130 144
41 266 128
388 528 142
727 80 171
81 114 119
590 223 144
137 98 122
305 13 128
539 33 144
385 546 142
25 697 145
420 470 129
453 632 142
603 121 144
518 133 144
277 710 171
54 569 144
626 505 137
270 654 145
638 722 171
718 738 140
6 597 144
41 382 144
370 279 144
762 46 171
557 422 142
436 100 144
423 127 144
330 290 144
264 327 144
289 421 144
578 647 132
447 474 129
540 176 144
235 325 131
584 729 171
162 790 171
16 157 122
787 345 171
131 459 144
747 798 153
700 329 145
588 413 142
701 107 145
342 230 144
691 101 145
415 161 144
282 789 171
113 700 145
226 132 125
344 35 144
404 319 144
37 744 171
728 404 171
322 696 145
717 217 171
404 679 145
558 638 132
411 109 144
633 468 142
36 172 125
594 143 144
9 544 144
203 598 144
221 145 125
707 103 171
763 430 171
627 367 142
420 481 129
56 410 144
538 191 144
19 178 125
483 508 142
366 493 142
376 304 144
596 266 144
225 54 125
323 74 131
567 544 137
787 227 171
245 794 171
562 682 145
445 666 145
427 385 134
318 286 131
190 207 120
299 541 144
152 163 99
37 300 128
481 191 144
417 183 144
794 473 171
672 565 145
233 525 144
419 727 171
350 298 144
171 685 145
27 342 144
277 795 171
262 419 144
761 623 171
285 384 144
200 219 115
614 631 132
337 708 171
398 9 144
452 75 144
561 253 144
265 490 144
584 179 144
43 495 144
24 193 125
715 717 34
726 129 171
716 344 171
574 484 142
189 15 125
444 192 144
254 53 128
330 260 144
181 759 171
23 541 144
729 179 171
