1 10 20
100 200 125
201 210 89
900 1000 174
1 1 1
10 1 20
1000 900 174
500 500 111
3000 4000 238
5 5 6
10 15 18
100 105 88
150 155 86
50 75 116
345 678 145
100 101 26
10 10 7
77 77 23
15 30 112
555 666 145
50 100 119
1000 1001 143
1234 4321 238
987 654 179
876 4321 238
321 1234 182
500 10000 262
7777 8888 252
6789 7890 257
3456 4567 238
1 999 179
100 199 125
300 399 144
500 599 137
700 799 171
900 999 174
1100 1200 182
1300 1400 177
1500 1600 167
1700 1800 180
1900 2000 175
2100 2200 170
2300 2400 183
2500 2600 178
2700 2800 173
2900 3000 217
3100 3200 199
3300 3400 181
3500 3600 194
3700 3800 238
3900 4000 189
4100 4200 189
4300 4400 215
4500 4600 184
4700 4800 197
4900 5000 210
5100 5200 179
5300 5400 192
5500 5600 236
5700 5800 205
5900 6000 187
6100 6200 262
6300 6400 200
6500 6600 244
6700 6800 182
6900 7000 257
7100 7200 195
7300 7400 208
7500 7600 208
7700 7800 221
7900 8000 252
8100 8200 190
8300 8400 234
8500 8600 203
8700 8800 216
8900 9000 247
9100 9200 198
9300 9400 198
9500 9600 198
9700 9800 198
9900 10000 180
1200 1400 177
230 600 144
10 50 112
125 175 125
5555 6666 262
1111 2222 182
350 450 134
999 1500 182
2500 2900 191
3600 4100 238
7800 8500 252
3200 3700 207
4700 5200 210
1700 2100 180
720 1220 182
1400 1800 180
200 250 128
8000 8500 234
123 321 131
1 999999 525
1700 4180 238
3980 7806 262
4808 7735 262
5608 7476 262
806029 805322 375
3797 4572 215
334 6377 262
2895 6626 262
4259 5737 236
39 25397 282
1838 7557 262
3891 4914 215
911 7032 262
574485 575669 328
7400 7800 239
6600 6900 182
5500 5900 236
4300 4700 215
2900 3300 217
560 960 179
1345 1645 172
1775 2075 175
1888 2112 175
505 555 137
3000 3400 199
7700 8200 252
4400 4900 197
5900 6400 262
665 765 171
3750 4050 189
2700 3000 217
910 1100 174
210 320 131
4300 5300 215
10 7500 262
1234 2345 183
678 1234 182
4567 5678 236
300 500 144
4100 4300 202
888888 999999 507
1 500000 449
666000 4300 509
1400 1600 172
1700 2100 180
8400 8700 203
9100 9500 260
1220 1620 177
2222 3333 217
100 300 128
3800 4200 189
2800 3200 217
1900 2300 183
2025 2325 183
780000 780100 300
