.......
----------------------------------------------------------------------
Ran 7 tests in 0.016s

OK
Name             Stmts   Miss Branch BrPart  Cover   Missing
------------------------------------------------------------
Collatz.py          12      0      2      0   100%
TestCollatz.py      32      0      2      0   100%
------------------------------------------------------------
TOTAL               44      0      4      0   100%
